﻿{
  "bot_name": "",
  "bot_avatar": "",
  "prefix": "!",
  "sounddir": "./Sounds/",
  "volume": "0.10",
  "soundboard_leave_timer": "60000",
  "apikeys": {
    "discord": "changeme",
    "google": "changeme"
  },
  "game_info": {
    "game_name": "Hivemind 0.0.1",
    "stream_url": ""
  }
}